Month,"Payment Date","Bonus Date"
January,2021-01-29,2021-1-15
February,2021-02-26,2021-2-15
March,2021-03-31,2021-3-15
April,2021-04-30,2021-4-15
May,2021-05-31,2021-05-19
June,2021-06-30,2021-6-15
July,2021-07-30,2021-7-15
August,2021-08-31,2021-08-18
September,2021-09-30,2021-9-15
October,2021-10-29,2021-10-15
November,2021-11-30,2021-11-15
December,2021-12-31,2021-12-15
